{
    "global": {
        "check_for_updates_on_startup": true,
        "show_in_menu_bar": false,
        "show_profile_name_in_menu_bar": false
    },
    "profiles": [
        {
            "complex_modifications": {
                "parameters": {
                    "basic.simultaneous_threshold_milliseconds": 50,
                    "basic.to_delayed_action_delay_milliseconds": 400,
                    "basic.to_if_alone_timeout_milliseconds": 1000,
                    "basic.to_if_held_down_threshold_milliseconds": 500,
                    "mouse_motion_to_scroll.speed": 100
                },
                "rules": [
                    {
                        "NOTE": "from key must be a JSON object NOT arrary",
                        "NOTE2": "see README to obtain bundle identifer",
                        "description": "ipatch, messages.app, cmd+j cmd+k, for next and prev conversation",
                        "manipulators": [
                            {
                                "conditions": [
                                    {
                                        "bundle_identifiers": [
                                            "com.apple.iChat"
                                        ],
                                        "file_paths": [
                                            "/Applications/Messages.app/Contents/MacOS/Messages"
                                        ],
                                        "type": "frontmost_application_if"
                                    }
                                ],
                                "from": {
                                    "key_code": "j",
                                    "modifiers": {
                                        "mandatory": [
                                            "left_command"
                                        ]
                                    }
                                },
                                "to": [
                                    {
                                        "key_code": "tab",
                                        "modifiers": [
                                            "left_control"
                                        ]
                                    }
                                ],
                                "type": "basic"
                            },
                            {
                                "conditions": [
                                    {
                                        "bundle_identifiers": [
                                            "com.apple.iChat"
                                        ],
                                        "file_paths": [
                                            "/Applications/Messages.app/Contents/MacOS/Messages"
                                        ],
                                        "type": "frontmost_application_if"
                                    }
                                ],
                                "from": {
                                    "key_code": "k",
                                    "modifiers": {
                                        "mandatory": [
                                            "left_command"
                                        ]
                                    }
                                },
                                "to": [
                                    {
                                        "key_code": "tab",
                                        "modifiers": [
                                            "left_control",
                                            "shift"
                                        ]
                                    }
                                ],
                                "type": "basic"
                            }
                        ]
                    },
                    {
                        "description": "Change caps_lock to control if pressed with other keys, to escape if pressed alone.",
                        "manipulators": [
                            {
                                "from": {
                                    "key_code": "caps_lock",
                                    "modifiers": {
                                        "optional": [
                                            "any"
                                        ]
                                    }
                                },
                                "to": [
                                    {
                                        "key_code": "left_control"
                                    }
                                ],
                                "to_if_alone": [
                                    {
                                        "key_code": "escape"
                                    }
                                ],
                                "type": "basic"
                            }
                        ]
                    },
                    {
                        "description": "Toggle caps_lock by pressing left_shift + right_shift at the same time",
                        "manipulators": [
                            {
                                "from": {
                                    "key_code": "left_shift",
                                    "modifiers": {
                                        "mandatory": [
                                            "right_shift"
                                        ],
                                        "optional": [
                                            "caps_lock"
                                        ]
                                    }
                                },
                                "to": [
                                    {
                                        "key_code": "caps_lock"
                                    }
                                ],
                                "to_if_alone": [
                                    {
                                        "key_code": "left_shift"
                                    }
                                ],
                                "type": "basic"
                            },
                            {
                                "from": {
                                    "key_code": "right_shift",
                                    "modifiers": {
                                        "mandatory": [
                                            "left_shift"
                                        ],
                                        "optional": [
                                            "caps_lock"
                                        ]
                                    }
                                },
                                "to": [
                                    {
                                        "key_code": "caps_lock"
                                    }
                                ],
                                "to_if_alone": [
                                    {
                                        "key_code": "right_shift"
                                    }
                                ],
                                "type": "basic"
                            }
                        ]
                    },
                    {
                        "description": "ipatch, Map fn + number keys to their corresponding consumer keys ie. vol up / vol down",
                        "manipulators": [
                            {
                                "from": {
                                    "key_code": "1",
                                    "modifiers": {
                                        "mandatory": [
                                            "fn"
                                        ],
                                        "optional": [
                                            "any"
                                        ]
                                    }
                                },
                                "to": [
                                    {
                                        "consumer_key_code": "display_brightness_decrement",
                                        "repeat": true
                                    }
                                ],
                                "type": "basic"
                            },
                            {
                                "from": {
                                    "key_code": "2",
                                    "modifiers": {
                                        "mandatory": [
                                            "fn"
                                        ],
                                        "optional": [
                                            "any"
                                        ]
                                    }
                                },
                                "to": [
                                    {
                                        "consumer_key_code": "display_brightness_increment",
                                        "repeat": true
                                    }
                                ],
                                "type": "basic"
                            },
                            {
                                "from": {
                                    "key_code": "3",
                                    "modifiers": {
                                        "mandatory": [
                                            "fn"
                                        ],
                                        "optional": [
                                            "any"
                                        ]
                                    }
                                },
                                "to": [
                                    {
                                        "key_code": "mission_control",
                                        "repeat": true
                                    }
                                ],
                                "type": "basic"
                            },
                            {
                                "from": {
                                    "key_code": "4",
                                    "modifiers": {
                                        "mandatory": [
                                            "fn"
                                        ],
                                        "optional": [
                                            "any"
                                        ]
                                    }
                                },
                                "to": [
                                    {
                                        "key_code": "launchpad",
                                        "repeat": true
                                    }
                                ],
                                "type": "basic"
                            },
                            {
                                "from": {
                                    "key_code": "5",
                                    "modifiers": {
                                        "mandatory": [
                                            "fn"
                                        ],
                                        "optional": [
                                            "any"
                                        ]
                                    }
                                },
                                "to": [
                                    {
                                        "key_code": "illumination_decrement",
                                        "repeat": true
                                    }
                                ],
                                "type": "basic"
                            },
                            {
                                "from": {
                                    "key_code": "6",
                                    "modifiers": {
                                        "mandatory": [
                                            "fn"
                                        ],
                                        "optional": [
                                            "any"
                                        ]
                                    }
                                },
                                "to": [
                                    {
                                        "key_code": "illumination_increment",
                                        "repeat": true
                                    }
                                ],
                                "type": "basic"
                            },
                            {
                                "from": {
                                    "key_code": "7",
                                    "modifiers": {
                                        "mandatory": [
                                            "fn"
                                        ],
                                        "optional": [
                                            "any"
                                        ]
                                    }
                                },
                                "to": [
                                    {
                                        "consumer_key_code": "rewind",
                                        "repeat": true
                                    }
                                ],
                                "type": "basic"
                            },
                            {
                                "from": {
                                    "key_code": "8",
                                    "modifiers": {
                                        "mandatory": [
                                            "fn"
                                        ],
                                        "optional": [
                                            "any"
                                        ]
                                    }
                                },
                                "to": [
                                    {
                                        "consumer_key_code": "play_or_pause",
                                        "repeat": true
                                    }
                                ],
                                "type": "basic"
                            },
                            {
                                "from": {
                                    "key_code": "9",
                                    "modifiers": {
                                        "mandatory": [
                                            "fn"
                                        ],
                                        "optional": [
                                            "any"
                                        ]
                                    }
                                },
                                "to": [
                                    {
                                        "consumer_key_code": "fast_forward",
                                        "repeat": true
                                    }
                                ],
                                "type": "basic"
                            },
                            {
                                "from": {
                                    "key_code": "0",
                                    "modifiers": {
                                        "mandatory": [
                                            "fn"
                                        ],
                                        "optional": [
                                            "any"
                                        ]
                                    }
                                },
                                "to": [
                                    {
                                        "consumer_key_code": "mute",
                                        "repeat": true
                                    }
                                ],
                                "type": "basic"
                            },
                            {
                                "from": {
                                    "key_code": "hyphen",
                                    "modifiers": {
                                        "mandatory": [
                                            "fn"
                                        ],
                                        "optional": [
                                            "any"
                                        ]
                                    }
                                },
                                "to": [
                                    {
                                        "consumer_key_code": "volume_decrement",
                                        "repeat": true
                                    }
                                ],
                                "type": "basic"
                            },
                            {
                                "from": {
                                    "key_code": "equal_sign",
                                    "modifiers": {
                                        "mandatory": [
                                            "fn"
                                        ],
                                        "optional": [
                                            "any"
                                        ]
                                    }
                                },
                                "to": [
                                    {
                                        "consumer_key_code": "volume_increment",
                                        "repeat": true
                                    }
                                ],
                                "type": "basic"
                            }
                        ]
                    },
                    {
                        "description": "Press right_command twice, toggle AutoRaise  🛸",
                        "manipulators": [
                            {
                                "conditions": [
                                    {
                                        "name": "key pressed",
                                        "type": "variable_if",
                                        "value": 1
                                    }
                                ],
                                "from": {
                                    "key_code": "right_command",
                                    "modifiers": {
                                        "optional": [
                                            "any"
                                        ]
                                    }
                                },
                                "to": [
                                    {
                                        "shell_command": "/bin/bash ~/.local/bin/auto-raise.sh 2>&1 >/dev/null"
                                    }
                                ],
                                "type": "basic"
                            },
                            {
                                "description": "to_delayed_action is set to 400ms in karabiner.json",
                                "from": {
                                    "key_code": "right_command",
                                    "modifiers": {
                                        "optional": [
                                            "any"
                                        ]
                                    }
                                },
                                "to": [
                                    {
                                        "set_variable": {
                                            "name": "key pressed",
                                            "value": 1
                                        }
                                    },
                                    {
                                        "key_code": "right_command"
                                    }
                                ],
                                "to_delayed_action": {
                                    "to_if_canceled": [
                                        {
                                            "set_variable": {
                                                "name": "key pressed",
                                                "value": 0
                                            }
                                        }
                                    ],
                                    "to_if_invoked": [
                                        {
                                            "set_variable": {
                                                "name": "key pressed",
                                                "value": 0
                                            }
                                        }
                                    ]
                                },
                                "type": "basic"
                            }
                        ]
                    },
                    {
                        "description": "🏴‍☠️ ipatch, hold left_shift then press fn to globally play or pause ⏯ mpv",
                        "manipulators": [
                            {
                                "from": {
                                    "key_code": "return_or_enter",
                                    "modifiers": {
                                        "mandatory": [
                                            "left_control"
                                        ],
                                        "optional": [
                                            "caps_lock"
                                        ]
                                    }
                                },
                                "to": [
                                    {
                                        "shell_command": "/bin/bash ~/.local/bin/mpv_control_playback.sh > ~/logs/mpv_pb.log 2>&1"
                                    }
                                ],
                                "type": "basic"
                            }
                        ]
                    }
                ]
            },
            "devices": [
                {
                    "disable_built_in_keyboard_if_exists": false,
                    "fn_function_keys": [],
                    "identifiers": {
                        "is_keyboard": true,
                        "is_pointing_device": false,
                        "product_id": 610,
                        "vendor_id": 1452
                    },
                    "ignore": false,
                    "manipulate_caps_lock_led": true,
                    "simple_modifications": []
                },
                {
                    "disable_built_in_keyboard_if_exists": false,
                    "fn_function_keys": [],
                    "identifiers": {
                        "is_keyboard": true,
                        "is_pointing_device": false,
                        "product_id": 591,
                        "vendor_id": 1452
                    },
                    "ignore": false,
                    "manipulate_caps_lock_led": true,
                    "simple_modifications": [
                        {
                            "from": {
                                "key_code": "escape"
                            },
                            "to": [
                                {
                                    "key_code": "grave_accent_and_tilde"
                                }
                            ]
                        },
                        {
                            "from": {
                                "key_code": "left_control"
                            },
                            "to": [
                                {
                                    "key_code": "fn"
                                }
                            ]
                        }
                    ]
                }
            ],
            "fn_function_keys": [
                {
                    "from": {
                        "key_code": "f1"
                    },
                    "to": [
                        {
                            "consumer_key_code": "display_brightness_decrement"
                        }
                    ]
                },
                {
                    "from": {
                        "key_code": "f2"
                    },
                    "to": [
                        {
                            "consumer_key_code": "display_brightness_increment"
                        }
                    ]
                },
                {
                    "from": {
                        "key_code": "f3"
                    },
                    "to": [
                        {
                            "key_code": "mission_control"
                        }
                    ]
                },
                {
                    "from": {
                        "key_code": "f4"
                    },
                    "to": [
                        {
                            "key_code": "launchpad"
                        }
                    ]
                },
                {
                    "from": {
                        "key_code": "f5"
                    },
                    "to": [
                        {
                            "key_code": "illumination_decrement"
                        }
                    ]
                },
                {
                    "from": {
                        "key_code": "f6"
                    },
                    "to": [
                        {
                            "key_code": "illumination_increment"
                        }
                    ]
                },
                {
                    "from": {
                        "key_code": "f7"
                    },
                    "to": [
                        {
                            "consumer_key_code": "rewind"
                        }
                    ]
                },
                {
                    "from": {
                        "key_code": "f8"
                    },
                    "to": [
                        {
                            "consumer_key_code": "play_or_pause"
                        }
                    ]
                },
                {
                    "from": {
                        "key_code": "f9"
                    },
                    "to": [
                        {
                            "consumer_key_code": "fastforward"
                        }
                    ]
                },
                {
                    "from": {
                        "key_code": "f10"
                    },
                    "to": [
                        {
                            "consumer_key_code": "mute"
                        }
                    ]
                },
                {
                    "from": {
                        "key_code": "f11"
                    },
                    "to": [
                        {
                            "consumer_key_code": "volume_decrement"
                        }
                    ]
                },
                {
                    "from": {
                        "key_code": "f12"
                    },
                    "to": [
                        {
                            "consumer_key_code": "volume_increment"
                        }
                    ]
                }
            ],
            "name": "capin-macOS",
            "parameters": {
                "delay_milliseconds_before_open_device": 1000
            },
            "selected": true,
            "simple_modifications": [],
            "virtual_hid_keyboard": {
                "country_code": 0,
                "indicate_sticky_modifier_keys_state": true,
                "mouse_key_xy_scale": 100
            }
        }
    ]
}